<define-tag pagetitle>DSA-4768-1 firefox-esr</define-tag>
<define-tag report_date>2020-9-28</define-tag>
<define-tag secrefs>CVE-2020-15673 CVE-2020-15676 CVE-2020-15677 CVE-2020-15678</define-tag>
<define-tag packages>firefox-esr</define-tag>
<define-tag isvulnerable>yes</define-tag>
<define-tag fixed>yes</define-tag>
<define-tag fixed-section>no</define-tag>

#use wml::debian::security

Debian follows the extended support releases (ESR) of Firefox. Support
for the 68.x series has ended, so starting with this update we're now
following the 78.x releases.

Between 68.x and 78.x, Firefox has seen a number of feature updates.
For more information please refer to
https://www.mozilla.org/en-US/firefox/78.0esr/releasenotes/

For the stable distribution (buster), these problems have been fixed in
version 78.3.0esr-1~deb10u1.

We recommend that you upgrade your firefox-esr packages.

For the detailed security status of firefox-esr please refer to
its security tracker page at:
https://security-tracker.debian.org/tracker/firefox-esr

</dl>
