<define-tag pagetitle>DLA-882-1 tryton-server</define-tag>
<define-tag report_date>2017-4-4</define-tag>
<define-tag secrefs>CVE-2017-0360</define-tag>
<define-tag packages>tryton-server</define-tag>
<define-tag isvulnerable>yes</define-tag>
<define-tag fixed>yes</define-tag>
<define-tag fixed-section>no</define-tag>

#use wml::debian::security

