<define-tag pagetitle>DLA-1000-1 imagemagick</define-tag>
<define-tag report_date>2017-6-24</define-tag>
<define-tag secrefs>CVE-2017-9261 CVE-2017-9262 CVE-2017-9405 CVE-2017-9407 CVE-2017-9409 CVE-2017-9439 CVE-2017-9500 CVE-2017-9501 Bug#863833 Bug#863834 Bug#864087 Bug#864089 Bug#864090 Bug#864274</define-tag>
<define-tag packages>imagemagick</define-tag>
<define-tag isvulnerable>yes</define-tag>
<define-tag fixed>yes</define-tag>
<define-tag fixed-section>no</define-tag>

#use wml::debian::security

