<define-tag pagetitle>DLA-1099-1 linux</define-tag>
<define-tag report_date>2017-9-20</define-tag>
<define-tag secrefs>CVE-2017-7482 CVE-2017-7542 CVE-2017-7889 CVE-2017-10661 CVE-2017-10911 CVE-2017-11176 CVE-2017-11600 CVE-2017-1213 CVE-2017-12153 CVE-2017-12154 CVE-2017-14106 CVE-2017-1414 CVE-2017-14156 CVE-2017-14340 CVE-2017-14489 CVE-2017-1000 CVE-2017-1000251 CVE-2017-1000363 CVE-2017-1000365 CVE-2017-1000380 Bug##866511 Bug##875881</define-tag>
<define-tag packages>linux</define-tag>
<define-tag isvulnerable>yes</define-tag>
<define-tag fixed>yes</define-tag>
<define-tag fixed-section>no</define-tag>

#use wml::debian::security

