<define-tag pagetitle>DLA-2344-1 mongodb</define-tag>
<define-tag report_date>2020-08-24</define-tag>
<define-tag secrefs>CVE-2020-7923</define-tag>
<define-tag packages>mongodb</define-tag>
<define-tag isvulnerable>yes</define-tag>
<define-tag fixed>yes</define-tag>
<define-tag fixed-section>no</define-tag>

#use wml::debian::security

