<define-tag pagetitle>DLA-2354-1 ndpi</define-tag>
<define-tag report_date>2020-8-29</define-tag>
<define-tag secrefs>CVE-2020-15476</define-tag>
<define-tag packages>ndpi</define-tag>
<define-tag isvulnerable>yes</define-tag>
<define-tag fixed>yes</define-tag>
<define-tag fixed-section>no</define-tag>

#use wml::debian::security

