<define-tag pagetitle>DLA-2298-1 libapache2-mod-auth-openidc</define-tag>
<define-tag report_date>2020-7-29</define-tag>
<define-tag secrefs>CVE-2019-14857 CVE-2019-20479 CVE-2019-1010247</define-tag>
<define-tag packages>libapache2-mod-auth-openidc</define-tag>
<define-tag isvulnerable>yes</define-tag>
<define-tag fixed>yes</define-tag>
<define-tag fixed-section>no</define-tag>

#use wml::debian::security

