<define-tag pagetitle>DLA-2326-1 htmlunit</define-tag>
<define-tag report_date>2020-08-15</define-tag>
<define-tag secrefs>CVE-2020-5529</define-tag>
<define-tag packages>htmlunit</define-tag>
<define-tag isvulnerable>yes</define-tag>
<define-tag fixed>yes</define-tag>
<define-tag fixed-section>no</define-tag>

#use wml::debian::security

