<define-tag pagetitle>DLA-1317-1 net-snmp</define-tag>
<define-tag report_date>2018-3-26</define-tag>
<define-tag secrefs>CVE-2018-1000116 Bug##894110</define-tag>
<define-tag packages>net-snmp</define-tag>
<define-tag isvulnerable>yes</define-tag>
<define-tag fixed>yes</define-tag>
<define-tag fixed-section>no</define-tag>

#use wml::debian::security

