<define-tag pagetitle>DLA-1401-1 graphicsmagick</define-tag>
<define-tag report_date>2018-6-27</define-tag>
<define-tag secrefs>CVE-2016-3716 CVE-2016-3717 CVE-2016-3718 CVE-2016-5241 CVE-2016-7446 CVE-2016-7447 CVE-2016-7448 CVE-2016-7449 CVE-2017-11636 CVE-2017-11643 CVE-2017-12937 CVE-2017-13063 CVE-2017-13064 CVE-2017-13065 CVE-2017-13134 CVE-2017-14314 CVE-2017-14733 CVE-2017-16353 CVE-2017-16669 CVE-2017-17498 CVE-2017-17500 CVE-2017-17501 CVE-2017-17502 CVE-2017-17503 CVE-2017-17782 CVE-2017-17912 CVE-2017-17915 Bug#870149 Bug#870157 Bug#872574 Bug#873130 Bug#873129 Bug#873119 Bug#873099 Bug#881524</define-tag>
<define-tag packages>graphicsmagick</define-tag>
<define-tag isvulnerable>yes</define-tag>
<define-tag fixed>yes</define-tag>
<define-tag fixed-section>no</define-tag>

#use wml::debian::security

