<define-tag pagetitle>DLA-1442-1 mailman</define-tag>
<define-tag report_date>2018-7-24</define-tag>
<define-tag secrefs>CVE-2018-0618 CVE-2018-13796 Bug#903674</define-tag>
<define-tag packages>mailman</define-tag>
<define-tag isvulnerable>yes</define-tag>
<define-tag fixed>yes</define-tag>
<define-tag fixed-section>no</define-tag>

#use wml::debian::security

