<define-tag pagetitle>DSA-4475-1 openssl</define-tag>
<define-tag report_date>2019-7-01</define-tag>
<define-tag secrefs>CVE-2019-1543</define-tag>
<define-tag packages>openssl</define-tag>
<define-tag isvulnerable>yes</define-tag>
<define-tag fixed>yes</define-tag>
<define-tag fixed-section>no</define-tag>

#use wml::debian::security



</dl>
