<define-tag pagetitle>DLA-1914-1 icedtea-web</define-tag>
<define-tag report_date>2019-9-9</define-tag>
<define-tag secrefs>CVE-2019-10181 CVE-2019-10182 CVE-2019-10185 Bug#934319</define-tag>
<define-tag packages>icedtea-web</define-tag>
<define-tag isvulnerable>yes</define-tag>
<define-tag fixed>yes</define-tag>
<define-tag fixed-section>no</define-tag>

#use wml::debian::security

