<define-tag pagetitle>DLA-2006-1 libxdmcp</define-tag>
<define-tag report_date>2019-11-25</define-tag>
<define-tag secrefs>CVE-2017-2625</define-tag>
<define-tag packages>libxdmcp</define-tag>
<define-tag isvulnerable>yes</define-tag>
<define-tag fixed>yes</define-tag>
<define-tag fixed-section>no</define-tag>

#use wml::debian::security

