<define-tag pagetitle>DLA-1734-1 libraw</define-tag>
<define-tag report_date>2019-3-28</define-tag>
<define-tag secrefs>CVE-2018-5800 CVE-2018-5801 CVE-2018-5802 CVE-2018-5808 CVE-2018-5817 CVE-2018-5818 CVE-2018-5819</define-tag>
<define-tag packages>libraw</define-tag>
<define-tag isvulnerable>yes</define-tag>
<define-tag fixed>yes</define-tag>
<define-tag fixed-section>no</define-tag>

#use wml::debian::security

