<define-tag pagetitle>DLA-543-1 sqlite3</define-tag>
<define-tag report_date>2016-7-6</define-tag>
<define-tag secrefs>CVE-2016-6153</define-tag>
<define-tag packages>sqlite3</define-tag>
<define-tag isvulnerable>yes</define-tag>
<define-tag fixed>yes</define-tag>
<define-tag fixed-section>no</define-tag>

#use wml::debian::security

