<define-tag pagetitle>DLA-520-1 horizon</define-tag>
<define-tag report_date>2016-6-18</define-tag>
<define-tag secrefs>CVE-2016-4428</define-tag>
<define-tag packages>horizon</define-tag>
<define-tag isvulnerable>yes</define-tag>
<define-tag fixed>yes</define-tag>
<define-tag fixed-section>no</define-tag>

#use wml::debian::security

