<define-tag pagetitle>DLA-657-1 libarchive</define-tag>
<define-tag report_date>2016-10-16</define-tag>
<define-tag secrefs>CVE-2016-5418 Bug#837714</define-tag>
<define-tag packages>libarchive</define-tag>
<define-tag isvulnerable>yes</define-tag>
<define-tag fixed>yes</define-tag>
<define-tag fixed-section>no</define-tag>

#use wml::debian::security

